{
    "totalPage": 10,
    "currentPage": 1,
    "totalCount": 98,
    "keyword": "검색어",
    "list": [
        {
            "classNo": 1,
            "name": "어떤 반1",
            "grade": 1,
            "days": "월,수,금",
            "opendt": "2023-03-01",
            "closedt": "2023-03-31"
        }
    ]
}
